 [
    {
        "id": 1,
        "name": "Javanese Cat1",
        "type": "Organism",
        "description": "Domestic breed of cats, of oriental origin",
        "children": [
            {
                "id": 1,
                "name": "Dog1",
                "type": "Organism",
                "description": "Domestic breed of cats, of oriental origin",
                "children": []
            },
            {
                "id": 2,
                "name": "Dog2",
                "type": "Organism",
                "description": "Domestic breed of cats, of oriental origin",
                "children": []
            },
            {
                "id": 3,
                "name": "Dog3",
                "type": "Organism",
                "description": "Domestic breed of cats, of oriental origin",
                "children": []
            },
            {
                "id": 4,
                "name": "Dog4",
                "type": "Organism",
                "description": "Domestic breed of cats, of oriental origin",
                "children": []
            },
            {
                "id": 5,
                "name": "Dog5",
                "type": "Organism",
                "description": "Domestic breed of cats, of oriental origin",
                "children": []
            }
        ]
    },
    {
        "id": 2,
        "name": "Javanese Cat2",
        "type": "Organism",
        "description": "Domestic breed of cats, of oriental origin",
        "children": [
            {
                "id": 1,
                "name": "Dog1",
                "type": "Organism",
                "description": "Domestic breed of cats, of oriental origin",
                "children": []
            },
            {
                "id": 2,
                "name": "Dog2",
                "type": "Organism",
                "description": "Domestic breed of cats, of oriental origin",
                "children": []
            },
            {
                "id": 3,
                "name": "Dog3",
                "type": "Organism",
                "description": "Domestic breed of cats, of oriental origin",
                "children": []
            },
            {
                "id": 4,
                "name": "Dog4",
                "type": "Organism",
                "description": "Domestic breed of cats, of oriental origin",
                "children": []
            },
            {
                "id": 5,
                "name": "Dog5",
                "type": "Organism",
                "description": "Domestic breed of cats, of oriental origin",
                "children": []
            }
        ]
    },
    {
        "id": 3,
        "name": "Javanese Cat3",
        "type": "Organism",
        "description": "Domestic breed of cats, of oriental origin",
        "children": [
            {
                "id": 1,
                "name": "Dog1",
                "type": "Organism",
                "description": "Domestic breed of cats, of oriental origin",
                "children": []
            },
            {
                "id": 2,
                "name": "Dog2",
                "type": "Organism",
                "description": "Domestic breed of cats, of oriental origin",
                "children": []
            },
            {
                "id": 3,
                "name": "Dog3",
                "type": "Organism",
                "description": "Domestic breed of cats, of oriental origin",
                "children": []
            },
            {
                "id": 4,
                "name": "Dog4",
                "type": "Organism",
                "description": "Domestic breed of cats, of oriental origin",
                "children": []
            },
            {
                "id": 5,
                "name": "Dog5",
                "type": "Organism",
                "description": "Domestic breed of cats, of oriental origin",
                "children": []
            }
        ]
    },
    {
        "id": 4,
        "name": "Javanese Cat4",
        "type": "Organism",
        "description": "Domestic breed of cats, of oriental origin",
        "children": []
    },
    {
        "id": 5,
        "name": "Javanese Cat5",
        "type": "Organism",
        "description": "Domestic breed of cats, of oriental origin",
        "children": []
    },
    {
        "id": 6,
        "name": "Javanese Cat6",
        "type": "Organism",
        "description": "Domestic breed of cats, of oriental origin",
        "children": []
    },
    {
        "id": 7,
        "name": "Javanese Cat7",
        "type": "Organism",
        "description": "Domestic breed of cats, of oriental origin",
        "children": []
    },
    {
        "id": 8,
        "name": "Javanese Cat8",
        "type": "Organism",
        "description": "Domestic breed of cats, of oriental origin",
        "children": []
    },
    {
        "id": 9,
        "name": "Javanese Cat9",
        "type": "Organism",
        "description": "Domestic breed of cats, of oriental origin",
        "children": []
    },
    {
        "id": 10,
        "name": "Javanese Cat",
        "type": "Organism",
        "description": "Domestic breed of cats, of oriental origin",
        "children": []
    },
    {
        "id": 11,
        "name": "Javanese Cat",
        "type": "Organism",
        "description": "Domestic breed of cats, of oriental origin",
        "children": []
    },
    {
        "id": 12,
        "name": "Javanese Cat",
        "type": "Organism",
        "description": "Domestic breed of cats, of oriental origin",
        "children": []
    },
    {
        "id": 13,
        "name": "Javanese Cat",
        "type": "Organism",
        "description": "Domestic breed of cats, of oriental origin",
        "children": []
    },
    {
        "id": 14,
        "name": "Javanese Cat",
        "type": "Organism",
        "description": "Domestic breed of cats, of oriental origin",
        "children": []
    },
    {
        "id": 15,
        "name": "Javanese Cat",
        "type": "Organism",
        "description": "Domestic breed of cats, of oriental origin",
        "children": []
    },
    {
        "id": 16,
        "name": "Javanese Cat",
        "type": "Organism",
        "description": "Domestic breed of cats, of oriental origin",
        "children": []
    },
    {
        "id": 17,
        "name": "Javanese Cat",
        "type": "Organism",
        "description": "Domestic breed of cats, of oriental origin",
        "children": []
    },
    {
        "id": 18,
        "name": "Javanese Cat",
        "type": "Organism",
        "description": "Domestic breed of cats, of oriental origin",
        "children": []
    },
    {
        "id": 19,
        "name": "Javanese Cat",
        "type": "Organism",
        "description": "Domestic breed of cats, of oriental origin",
        "children": []
    },
    {
        "id": 20,
        "name": "Javanese Cat",
        "type": "Organism",
        "description": "Domestic breed of cats, of oriental origin",
        "children": []
    }
 ]